[{
  "_id": {
    "$oid": "5f72e05c6c2be51b987c8fb6"
  },
  "login": "bantonio0",
  "password": "fb270c09892991e7c99ee391a27a8e7b",
  "status": true
},{
  "_id": {
    "$oid": "5f72e05c6c2be51b987c8fb7"
  },
  "login": "jbrookwell1",
  "password": "647ee39f6f11236fb9b249afe7215220",
  "status": false
},{
  "_id": {
    "$oid": "5f72e05c6c2be51b987c8fb8"
  },
  "login": "jcardillo2",
  "password": "b2165b202c50bb7f5b9ea5e9a43b69d9",
  "status": false
},{
  "_id": {
    "$oid": "5f72e05c6c2be51b987c8fb9"
  },
  "login": "hinkster3",
  "password": "00b42033198e1133ebea64077eb824de",
  "status": true
},{
  "_id": {
    "$oid": "5f72e05c6c2be51b987c8fba"
  },
  "login": "dfarra4",
  "password": "abac49ae4982387333f3daa3e7585690",
  "status": false
},{
  "_id": {
    "$oid": "5f72e05c6c2be51b987c8fbb"
  },
  "login": "jgookes5",
  "password": "dd9b6d6f281d2cca09645d513840d3a8",
  "status": true
},{
  "_id": {
    "$oid": "5f72e05c6c2be51b987c8fbc"
  },
  "login": "oellerman6",
  "password": "8edcd4cd109df8c066c455c553c44fd1",
  "status": false
},{
  "_id": {
    "$oid": "5f72e05c6c2be51b987c8fbd"
  },
  "login": "sditter7",
  "password": "f053364b1c3b81a3abfda9b6fe6c12a6",
  "status": true
},{
  "_id": {
    "$oid": "5f72e05c6c2be51b987c8fbe"
  },
  "login": "cdenniss8",
  "password": "299834cab9205868e5be9c46fe08e0ef",
  "status": false
},{
  "_id": {
    "$oid": "5f72e05c6c2be51b987c8fbf"
  },
  "login": "cstrover9",
  "password": "72d8251b6cabb23a6c6993de2ca88d37",
  "status": false
},{
  "_id": {
    "$oid": "5f72e05c6c2be51b987c8fc0"
  },
  "login": "apenkmana",
  "password": "2c6e5f0c9700c5a4948849097f6e4358",
  "status": true
},{
  "_id": {
    "$oid": "5f72e05c6c2be51b987c8fc1"
  },
  "login": "mpharoahb",
  "password": "d0dfa11cd642fe0788388dc5abc2ed68",
  "status": true
},{
  "_id": {
    "$oid": "5f72e05c6c2be51b987c8fc2"
  },
  "login": "jbrydellc",
  "password": "cc1cfbf3567d0881291f501e82298949",
  "status": false
},{
  "_id": {
    "$oid": "5f72e05c6c2be51b987c8fc3"
  },
  "login": "srosasd",
  "password": "0299cbdabfdcff1a6f778dd4aa025c33",
  "status": true
},{
  "_id": {
    "$oid": "5f72e05c6c2be51b987c8fc4"
  },
  "login": "aenochssone",
  "password": "94b373734814f2728c45c10c43d578ff",
  "status": false
},{
  "_id": {
    "$oid": "5f72e05c6c2be51b987c8fc5"
  },
  "login": "rdayleyf",
  "password": "94342400de8e2b28e27185633c00484f",
  "status": false
},{
  "_id": {
    "$oid": "5f72e05c6c2be51b987c8fc6"
  },
  "login": "bhallgalleyg",
  "password": "bc6a067c3f0c542f2b1e05d191c297a6",
  "status": false
},{
  "_id": {
    "$oid": "5f72e05c6c2be51b987c8fc7"
  },
  "login": "ttoffolinih",
  "password": "73dcd8ac39661a0128f681b677ad11c0",
  "status": false
},{
  "_id": {
    "$oid": "5f72e05c6c2be51b987c8fc8"
  },
  "login": "trudlandi",
  "password": "2c9fa84460b405e27246dbef6b538836",
  "status": false
},{
  "_id": {
    "$oid": "5f72e05c6c2be51b987c8fc9"
  },
  "login": "vbawcockj",
  "password": "9dfe6f7dc8d8299a7bee1f56a7098d49",
  "status": true
}]